arquivos_quartus/simulation/qsim/IARITH.msim.vcd
$comment
	File created using the following command:
		vcd file IARITH.msim.vcd -direction
$end
$date
	Wed Nov 12 17:02:53 2025
$end
$version
	ModelSim Version 10.5b
$end
$timescale
	1ps
$end

$scope module iarith_vhd_vec_tst $end
$var wire 1 ! ADDRESS [7] $end
$var wire 1 " ADDRESS [6] $end
$var wire 1 # ADDRESS [5] $end
$var wire 1 $ ADDRESS [4] $end
$var wire 1 % ADDRESS [3] $end
$var wire 1 & ADDRESS [2] $end
$var wire 1 ' ADDRESS [1] $end
$var wire 1 ( ADDRESS [0] $end
$var wire 1 ) CLOCK_50 $end
$var wire 1 * DATA_IN [7] $end
$var wire 1 + DATA_IN [6] $end
$var wire 1 , DATA_IN [5] $end
$var wire 1 - DATA_IN [4] $end
$var wire 1 . DATA_IN [3] $end
$var wire 1 / DATA_IN [2] $end
$var wire 1 0 DATA_IN [1] $end
$var wire 1 1 DATA_IN [0] $end
$var wire 1 2 DATA_OUT [7] $end
$var wire 1 3 DATA_OUT [6] $end
$var wire 1 4 DATA_OUT [5] $end
$var wire 1 5 DATA_OUT [4] $end
$var wire 1 6 DATA_OUT [3] $end
$var wire 1 7 DATA_OUT [2] $end
$var wire 1 8 DATA_OUT [1] $end
$var wire 1 9 DATA_OUT [0] $end
$var wire 1 : INSTRUCAO [12] $end
$var wire 1 ; INSTRUCAO [11] $end
$var wire 1 < INSTRUCAO [10] $end
$var wire 1 = INSTRUCAO [9] $end
$var wire 1 > INSTRUCAO [8] $end
$var wire 1 ? INSTRUCAO [7] $end
$var wire 1 @ INSTRUCAO [6] $end
$var wire 1 A INSTRUCAO [5] $end
$var wire 1 B INSTRUCAO [4] $end
$var wire 1 C INSTRUCAO [3] $end
$var wire 1 D INSTRUCAO [2] $end
$var wire 1 E INSTRUCAO [1] $end
$var wire 1 F INSTRUCAO [0] $end

$scope module i1 $end
$var wire 1 G gnd $end
$var wire 1 H vcc $end
$var wire 1 I unknown $end
$var wire 1 J devoe $end
$var wire 1 K devclrn $end
$var wire 1 L devpor $end
$var wire 1 M ww_devoe $end
$var wire 1 N ww_devclrn $end
$var wire 1 O ww_devpor $end
$var wire 1 P ww_CLOCK_50 $end
$var wire 1 Q ww_INSTRUCAO [12] $end
$var wire 1 R ww_INSTRUCAO [11] $end
$var wire 1 S ww_INSTRUCAO [10] $end
$var wire 1 T ww_INSTRUCAO [9] $end
$var wire 1 U ww_INSTRUCAO [8] $end
$var wire 1 V ww_INSTRUCAO [7] $end
$var wire 1 W ww_INSTRUCAO [6] $end
$var wire 1 X ww_INSTRUCAO [5] $end
$var wire 1 Y ww_INSTRUCAO [4] $end
$var wire 1 Z ww_INSTRUCAO [3] $end
$var wire 1 [ ww_INSTRUCAO [2] $end
$var wire 1 \ ww_INSTRUCAO [1] $end
$var wire 1 ] ww_INSTRUCAO [0] $end
$var wire 1 ^ ww_DATA_IN [7] $end
$var wire 1 _ ww_DATA_IN [6] $end
$var wire 1 ` ww_DATA_IN [5] $end
$var wire 1 a ww_DATA_IN [4] $end
$var wire 1 b ww_DATA_IN [3] $end
$var wire 1 c ww_DATA_IN [2] $end
$var wire 1 d ww_DATA_IN [1] $end
$var wire 1 e ww_DATA_IN [0] $end
$var wire 1 f ww_DATA_OUT [7] $end
$var wire 1 g ww_DATA_OUT [6] $end
$var wire 1 h ww_DATA_OUT [5] $end
$var wire 1 i ww_DATA_OUT [4] $end
$var wire 1 j ww_DATA_OUT [3] $end
$var wire 1 k ww_DATA_OUT [2] $end
$var wire 1 l ww_DATA_OUT [1] $end
$var wire 1 m ww_DATA_OUT [0] $end
$var wire 1 n ww_ADDRESS [7] $end
$var wire 1 o ww_ADDRESS [6] $end
$var wire 1 p ww_ADDRESS [5] $end
$var wire 1 q ww_ADDRESS [4] $end
$var wire 1 r ww_ADDRESS [3] $end
$var wire 1 s ww_ADDRESS [2] $end
$var wire 1 t ww_ADDRESS [1] $end
$var wire 1 u ww_ADDRESS [0] $end
$var wire 1 v \INSTRUCAO[0]~output_o\ $end
$var wire 1 w \INSTRUCAO[1]~output_o\ $end
$var wire 1 x \INSTRUCAO[2]~output_o\ $end
$var wire 1 y \INSTRUCAO[3]~output_o\ $end
$var wire 1 z \INSTRUCAO[4]~output_o\ $end
$var wire 1 { \INSTRUCAO[5]~output_o\ $end
$var wire 1 | \INSTRUCAO[6]~output_o\ $end
$var wire 1 } \INSTRUCAO[7]~output_o\ $end
$var wire 1 ~ \INSTRUCAO[8]~output_o\ $end
$var wire 1 !! \INSTRUCAO[9]~output_o\ $end
$var wire 1 "! \INSTRUCAO[10]~output_o\ $end
$var wire 1 #! \INSTRUCAO[11]~output_o\ $end
$var wire 1 $! \INSTRUCAO[12]~output_o\ $end
$var wire 1 %! \DATA_IN[0]~output_o\ $end
$var wire 1 &! \DATA_IN[1]~output_o\ $end
$var wire 1 '! \DATA_IN[2]~output_o\ $end
$var wire 1 (! \DATA_IN[3]~output_o\ $end
$var wire 1 )! \DATA_IN[4]~output_o\ $end
$var wire 1 *! \DATA_IN[5]~output_o\ $end
$var wire 1 +! \DATA_IN[6]~output_o\ $end
$var wire 1 ,! \DATA_IN[7]~output_o\ $end
$var wire 1 -! \DATA_OUT[0]~output_o\ $end
$var wire 1 .! \DATA_OUT[1]~output_o\ $end
$var wire 1 /! \DATA_OUT[2]~output_o\ $end
$var wire 1 0! \DATA_OUT[3]~output_o\ $end
$var wire 1 1! \DATA_OUT[4]~output_o\ $end
$var wire 1 2! \DATA_OUT[5]~output_o\ $end
$var wire 1 3! \DATA_OUT[6]~output_o\ $end
$var wire 1 4! \DATA_OUT[7]~output_o\ $end
$var wire 1 5! \ADDRESS[0]~output_o\ $end
$var wire 1 6! \ADDRESS[1]~output_o\ $end
$var wire 1 7! \ADDRESS[2]~output_o\ $end
$var wire 1 8! \ADDRESS[3]~output_o\ $end
$var wire 1 9! \ADDRESS[4]~output_o\ $end
$var wire 1 :! \ADDRESS[5]~output_o\ $end
$var wire 1 ;! \ADDRESS[6]~output_o\ $end
$var wire 1 <! \ADDRESS[7]~output_o\ $end
$var wire 1 =! \CLOCK_50~input_o\ $end
$var wire 1 >! \PC_Mais1|Add0~1_sumout\ $end
$var wire 1 ?! \PC_Mais1|Add0~2\ $end
$var wire 1 @! \PC_Mais1|Add0~29_sumout\ $end
$var wire 1 A! \PC_Mais1|Add0~30\ $end
$var wire 1 B! \PC_Mais1|Add0~33_sumout\ $end
$var wire 1 C! \PC_Mais1|Add0~34\ $end
$var wire 1 D! \PC_Mais1|Add0~21_sumout\ $end
$var wire 1 E! \PC_Mais1|Add0~22\ $end
$var wire 1 F! \PC_Mais1|Add0~25_sumout\ $end
$var wire 1 G! \PC_Mais1|Add0~26\ $end
$var wire 1 H! \PC_Mais1|Add0~5_sumout\ $end
$var wire 1 I! \PC_Mais1|Add0~6\ $end
$var wire 1 J! \PC_Mais1|Add0~9_sumout\ $end
$var wire 1 K! \PC_Mais1|Add0~10\ $end
$var wire 1 L! \PC_Mais1|Add0~13_sumout\ $end
$var wire 1 M! \PC_Mais1|Add0~14\ $end
$var wire 1 N! \PC_Mais1|Add0~17_sumout\ $end
$var wire 1 O! \memoriaROM|memROM~0_combout\ $end
$var wire 1 P! \memoriaROM|memROM~1_combout\ $end
$var wire 1 Q! \memoriaROM|memROM~2_combout\ $end
$var wire 1 R! \memoriaROM|memROM~3_combout\ $end
$var wire 1 S! \Registrador_PC|DOUT\ [8] $end
$var wire 1 T! \Registrador_PC|DOUT\ [7] $end
$var wire 1 U! \Registrador_PC|DOUT\ [6] $end
$var wire 1 V! \Registrador_PC|DOUT\ [5] $end
$var wire 1 W! \Registrador_PC|DOUT\ [4] $end
$var wire 1 X! \Registrador_PC|DOUT\ [3] $end
$var wire 1 Y! \Registrador_PC|DOUT\ [2] $end
$var wire 1 Z! \Registrador_PC|DOUT\ [1] $end
$var wire 1 [! \Registrador_PC|DOUT\ [0] $end
$var wire 1 \! \PC_Mais1|ALT_INV_Add0~9_sumout\ $end
$var wire 1 ]! \PC_Mais1|ALT_INV_Add0~13_sumout\ $end
$var wire 1 ^! \PC_Mais1|ALT_INV_Add0~1_sumout\ $end
$var wire 1 _! \PC_Mais1|ALT_INV_Add0~5_sumout\ $end
$var wire 1 `! \Registrador_PC|ALT_INV_DOUT\ [8] $end
$var wire 1 a! \Registrador_PC|ALT_INV_DOUT\ [7] $end
$var wire 1 b! \Registrador_PC|ALT_INV_DOUT\ [6] $end
$var wire 1 c! \Registrador_PC|ALT_INV_DOUT\ [5] $end
$var wire 1 d! \Registrador_PC|ALT_INV_DOUT\ [4] $end
$var wire 1 e! \Registrador_PC|ALT_INV_DOUT\ [3] $end
$var wire 1 f! \Registrador_PC|ALT_INV_DOUT\ [2] $end
$var wire 1 g! \Registrador_PC|ALT_INV_DOUT\ [1] $end
$var wire 1 h! \Registrador_PC|ALT_INV_DOUT\ [0] $end
$var wire 1 i! \memoriaROM|ALT_INV_memROM~0_combout\ $end
$var wire 1 j! \PC_Mais1|ALT_INV_Add0~33_sumout\ $end
$var wire 1 k! \PC_Mais1|ALT_INV_Add0~29_sumout\ $end
$var wire 1 l! \PC_Mais1|ALT_INV_Add0~25_sumout\ $end
$var wire 1 m! \PC_Mais1|ALT_INV_Add0~21_sumout\ $end
$var wire 1 n! \PC_Mais1|ALT_INV_Add0~17_sumout\ $end
$upscope $end
$upscope $end
$enddefinitions $end
#0
$dumpvars
0)
0G
1H
xI
1J
1K
1L
1M
1N
1O
0P
1v
0w
0x
0y
0z
0{
0|
0}
0~
1!!
0"!
0#!
0$!
0%!
0&!
0'!
0(!
0)!
0*!
0+!
0,!
0-!
0.!
0/!
00!
01!
02!
03!
04!
05!
06!
07!
08!
09!
0:!
0;!
0<!
0=!
1>!
0?!
0@!
0A!
0B!
0C!
0D!
0E!
0F!
0G!
0H!
0I!
0J!
0K!
0L!
0M!
0N!
1O!
1P!
0Q!
0R!
1\!
1]!
0^!
1_!
0i!
1j!
1k!
1l!
1m!
1n!
0Q
0R
0S
1T
0U
0V
0W
0X
0Y
0Z
0[
0\
1]
0^
0_
0`
0a
0b
0c
0d
0e
0f
0g
0h
0i
0j
0k
0l
0m
0n
0o
0p
0q
0r
0s
0t
0u
0S!
0T!
0U!
0V!
0W!
0X!
0Y!
0Z!
0[!
1`!
1a!
1b!
1c!
1d!
1e!
1f!
1g!
1h!
0!
0"
0#
0$
0%
0&
0'
0(
0*
0+
0,
0-
0.
0/
00
01
02
03
04
05
06
07
08
09
0:
0;
0<
1=
0>
0?
0@
0A
0B
0C
0D
0E
1F
$end
#10000
1)
1P
1=!
1[!
0h!
0>!
1?!
1^!
1@!
0P!
0k!
1Q!
0v
0!!
0]
0T
1w
1"!
0F
0=
1\
1S
1E
1<
#20000
0)
0P
0=!
#30000
1)
1P
1=!
0[!
1Z!
0g!
1h!
1>!
0?!
0@!
1A!
1k!
0^!
1B!
1@!
0A!
1P!
0Q!
0k!
0j!
0B!
1R!
1Q!
1j!
0R!
0w
0"!
1v
1!!
0\
0S
1]
1T
1w
1"!
1x
1F
0E
1=
0<
1\
1S
1[
0x
1E
1D
1<
0[
0D
#40000
0)
0P
0=!
#50000
1)
1P
1=!
1[!
0h!
0>!
1?!
1^!
0@!
1A!
0P!
1k!
1B!
0Q!
0j!
1R!
0v
0!!
0]
0T
0w
0"!
0F
0=
0\
0S
1x
0E
0<
1[
1D
#60000
0)
0P
0=!
#70000
1)
1P
1=!
0[!
0Z!
1Y!
0f!
1g!
1h!
1>!
0?!
1@!
0A!
0B!
1C!
1j!
0k!
0^!
1D!
1B!
0C!
0@!
1P!
1Q!
0R!
1k!
0j!
0m!
0D!
0O!
1R!
0Q!
1m!
1i!
1O!
0x
1w
1"!
1v
1!!
0P!
0R!
0i!
0[
1\
1S
1]
1T
0w
0"!
1x
1P!
1R!
1F
1E
0D
1=
1<
0\
0S
1[
0E
1D
0<
0x
0v
0!!
0[
0]
0T
1x
1v
1!!
0F
0D
0=
1[
1]
1T
1F
1D
1=
#80000
0)
0P
0=!
#90000
1)
1P
1=!
1[!
0h!
0>!
1?!
1^!
1@!
0P!
0k!
1Q!
0v
0!!
0]
0T
1w
1"!
0F
0=
1\
1S
1E
1<
#100000
0)
0P
0=!
#110000
1)
1P
1=!
0[!
1Z!
0g!
1h!
1>!
0?!
0@!
1A!
1k!
0^!
0B!
1C!
1@!
0A!
1P!
0Q!
0k!
1j!
1B!
0C!
1D!
0R!
1Q!
0m!
0j!
0D!
1R!
0O!
1m!
0w
0"!
1v
1!!
1i!
1O!
0\
0S
1]
1T
1w
1"!
0x
0P!
0Q!
0R!
0i!
1F
0E
1=
0<
1\
1S
0[
1x
1P!
1Q!
1R!
1E
0D
1<
1[
1D
0x
0w
0"!
0v
0!!
0[
0\
0S
0]
0T
1x
1w
1"!
1v
1!!
0F
0E
0D
0=
0<
1[
1\
1S
1]
1T
1F
1E
1D
1=
1<
#120000
0)
0P
0=!
#130000
1)
1P
1=!
1[!
0h!
0>!
1?!
1^!
0@!
1A!
0P!
1k!
0B!
1C!
0Q!
1j!
1D!
0R!
0m!
0v
0!!
0O!
0]
0T
0w
0"!
1i!
0F
0=
0\
0S
0x
0E
0<
0[
0D
#140000
0)
0P
0=!
#150000
1)
1P
1=!
0[!
0Z!
0Y!
1X!
0e!
1f!
1g!
1h!
1>!
0?!
1@!
0A!
1B!
0C!
0D!
1E!
1m!
0j!
0k!
0^!
1F!
1D!
0E!
0B!
0@!
1O!
1k!
1j!
0m!
0l!
0F!
0i!
0O!
1l!
1P!
1i!
0P!
1v
1!!
1]
1T
0v
0!!
1F
1=
0]
0T
0F
0=
#160000
0)
0P
0=!
#170000
1)
1P
1=!
1[!
0h!
0>!
1?!
1^!
1@!
0k!
#180000
0)
0P
0=!
#190000
1)
1P
1=!
0[!
1Z!
0g!
1h!
1>!
0?!
0@!
1A!
1k!
0^!
1B!
1@!
0A!
0k!
0j!
0B!
1j!
#200000
0)
0P
0=!
#210000
1)
1P
1=!
1[!
0h!
0>!
1?!
1^!
0@!
1A!
1k!
1B!
0j!
#220000
0)
0P
0=!
#230000
1)
1P
1=!
0[!
0Z!
1Y!
0f!
1g!
1h!
1>!
0?!
1@!
0A!
0B!
1C!
1j!
0k!
0^!
0D!
1E!
1B!
0C!
0@!
1k!
0j!
1m!
1D!
0E!
1F!
1O!
0l!
0m!
0F!
0i!
0O!
1l!
1P!
1R!
1i!
0P!
0R!
1x
1v
1!!
1[
1]
1T
0x
0v
0!!
1F
1D
1=
0[
0]
0T
0F
0D
0=
#240000
0)
0P
0=!
#250000
1)
1P
1=!
1[!
0h!
0>!
1?!
1^!
1@!
0k!
#260000
0)
0P
0=!
#270000
1)
1P
1=!
0[!
1Z!
0g!
1h!
1>!
0?!
0@!
1A!
1k!
0^!
0B!
1C!
1@!
0A!
0k!
1j!
1B!
0C!
0D!
1E!
1m!
0j!
1F!
1D!
0E!
1O!
0m!
0l!
0F!
0i!
0O!
1l!
1P!
1Q!
1R!
1i!
0P!
0Q!
0R!
1x
1w
1"!
1v
1!!
1[
1\
1S
1]
1T
0x
0w
0"!
0v
0!!
1F
1E
1D
1=
1<
0[
0\
0S
0]
0T
0F
0E
0D
0=
0<
#280000
0)
0P
0=!
#290000
1)
1P
1=!
1[!
0h!
0>!
1?!
1^!
0@!
1A!
1k!
0B!
1C!
1j!
0D!
1E!
1m!
1F!
1O!
0l!
0i!
0O!
1i!
#300000
0)
0P
0=!
#310000
1)
1P
1=!
0[!
0Z!
0Y!
0X!
1W!
0d!
1e!
1f!
1g!
1h!
1>!
0?!
1@!
0A!
1B!
0C!
1D!
0E!
0F!
1G!
1l!
0m!
0j!
0k!
0^!
1H!
1F!
0G!
0D!
0B!
0@!
1k!
1j!
1m!
0l!
0_!
0H!
1_!
#320000
0)
0P
0=!
#330000
1)
1P
1=!
1[!
0h!
0>!
1?!
1^!
1@!
0k!
#340000
0)
0P
0=!
#350000
1)
1P
1=!
0[!
1Z!
0g!
1h!
1>!
0?!
0@!
1A!
1k!
0^!
1B!
1@!
0A!
0k!
0j!
0B!
1j!
#360000
0)
0P
0=!
#370000
1)
1P
1=!
1[!
0h!
0>!
1?!
1^!
0@!
1A!
1k!
1B!
0j!
#380000
0)
0P
0=!
#390000
1)
1P
1=!
0[!
0Z!
1Y!
0f!
1g!
1h!
1>!
0?!
1@!
0A!
0B!
1C!
1j!
0k!
0^!
1D!
1B!
0C!
0@!
1k!
0j!
0m!
0D!
1m!
#400000
0)
0P
0=!
#410000
1)
1P
1=!
1[!
0h!
0>!
1?!
1^!
1@!
0k!
#420000
0)
0P
0=!
#430000
1)
1P
1=!
0[!
1Z!
0g!
1h!
1>!
0?!
0@!
1A!
1k!
0^!
0B!
1C!
1@!
0A!
0k!
1j!
1B!
0C!
1D!
0m!
0j!
0D!
1m!
#440000
0)
0P
0=!
#450000
1)
1P
1=!
1[!
0h!
0>!
1?!
1^!
0@!
1A!
1k!
0B!
1C!
1j!
1D!
0m!
#460000
0)
0P
0=!
#470000
1)
1P
1=!
0[!
0Z!
0Y!
1X!
0e!
1f!
1g!
1h!
1>!
0?!
1@!
0A!
1B!
0C!
0D!
1E!
1m!
0j!
0k!
0^!
0F!
1G!
1D!
0E!
0B!
0@!
1k!
1j!
0m!
1l!
1F!
0G!
1H!
0_!
0l!
0H!
1_!
#480000
0)
0P
0=!
#490000
1)
1P
1=!
1[!
0h!
0>!
1?!
1^!
1@!
0k!
#500000
0)
0P
0=!
#510000
1)
1P
1=!
0[!
1Z!
0g!
1h!
1>!
0?!
0@!
1A!
1k!
0^!
1B!
1@!
0A!
0k!
0j!
0B!
1j!
#520000
0)
0P
0=!
#530000
1)
1P
1=!
1[!
0h!
0>!
1?!
1^!
0@!
1A!
1k!
1B!
0j!
#540000
0)
0P
0=!
#550000
1)
1P
1=!
0[!
0Z!
1Y!
0f!
1g!
1h!
1>!
0?!
1@!
0A!
0B!
1C!
1j!
0k!
0^!
0D!
1E!
1B!
0C!
0@!
1k!
0j!
1m!
1D!
0E!
0F!
1G!
1l!
0m!
1H!
1F!
0G!
0l!
0_!
0H!
1_!
#560000
0)
0P
0=!
#570000
1)
1P
1=!
1[!
0h!
0>!
1?!
1^!
1@!
0k!
#580000
0)
0P
0=!
#590000
1)
1P
1=!
0[!
1Z!
0g!
1h!
1>!
0?!
0@!
1A!
1k!
0^!
0B!
1C!
1@!
0A!
0k!
1j!
1B!
0C!
0D!
1E!
1m!
0j!
0F!
1G!
1D!
0E!
0m!
1l!
1F!
0G!
1H!
0_!
0l!
0H!
1_!
#600000
0)
0P
0=!
#610000
1)
1P
1=!
1[!
0h!
0>!
1?!
1^!
0@!
1A!
1k!
0B!
1C!
1j!
0D!
1E!
1m!
0F!
1G!
1l!
1H!
1O!
0_!
0i!
#620000
0)
0P
0=!
#630000
1)
1P
1=!
0[!
1V!
0Z!
0Y!
0X!
0W!
1d!
1e!
1f!
1g!
0c!
1h!
1>!
0?!
0H!
1I!
1@!
0A!
1B!
0C!
1D!
0E!
1F!
0G!
0l!
0m!
0j!
0k!
1_!
0^!
1H!
0I!
0F!
0D!
0B!
1J!
0@!
1P!
1Q!
1R!
0O!
1k!
0\!
1j!
1m!
1l!
0_!
0J!
1i!
1O!
0P!
0R!
0Q!
1\!
0i!
1x
1w
1"!
1v
1!!
1[
1\
1S
1]
1T
0w
0"!
0x
0v
0!!
1F
1E
1D
1=
1<
0\
0S
0[
0]
0T
0F
0E
0D
0=
0<
#640000
0)
0P
0=!
#650000
1)
1P
1=!
1[!
0h!
0>!
1?!
1^!
1@!
0k!
#660000
0)
0P
0=!
#670000
1)
1P
1=!
0[!
1Z!
0g!
1h!
1>!
0?!
0@!
1A!
1k!
0^!
1B!
1@!
0A!
0k!
0j!
0B!
1j!
#680000
0)
0P
0=!
#690000
1)
1P
1=!
1[!
0h!
0>!
1?!
1^!
0@!
1A!
1k!
1B!
0j!
#700000
0)
0P
0=!
#710000
1)
1P
1=!
0[!
0Z!
1Y!
0f!
1g!
1h!
1>!
0?!
1@!
0A!
0B!
1C!
1j!
0k!
0^!
1D!
1B!
0C!
0@!
1k!
0j!
0m!
0D!
0O!
1m!
1i!
1O!
0i!
#720000
0)
0P
0=!
#730000
1)
1P
1=!
1[!
0h!
0>!
1?!
1^!
1@!
0k!
#740000
0)
0P
0=!
#750000
1)
1P
1=!
0[!
1Z!
0g!
1h!
1>!
0?!
0@!
1A!
1k!
0^!
0B!
1C!
1@!
0A!
0k!
1j!
1B!
0C!
1D!
0m!
0j!
0D!
0O!
1m!
1i!
1O!
0i!
#760000
0)
0P
0=!
#770000
1)
1P
1=!
1[!
0h!
0>!
1?!
1^!
0@!
1A!
1k!
0B!
1C!
1j!
1D!
0m!
0O!
1i!
#780000
0)
0P
0=!
#790000
1)
1P
1=!
0[!
0Z!
0Y!
1X!
0e!
1f!
1g!
1h!
1>!
0?!
1@!
0A!
1B!
0C!
0D!
1E!
1m!
0j!
0k!
0^!
1F!
1D!
0E!
0B!
0@!
1O!
1k!
1j!
0m!
0l!
0F!
0i!
0O!
1l!
1i!
#800000
0)
0P
0=!
#810000
1)
1P
1=!
1[!
0h!
0>!
1?!
1^!
1@!
0k!
#820000
0)
0P
0=!
#830000
1)
1P
1=!
0[!
1Z!
0g!
1h!
1>!
0?!
0@!
1A!
1k!
0^!
1B!
1@!
0A!
0k!
0j!
0B!
1j!
#840000
0)
0P
0=!
#850000
1)
1P
1=!
1[!
0h!
0>!
1?!
1^!
0@!
1A!
1k!
1B!
0j!
#860000
0)
0P
0=!
#870000
1)
1P
1=!
0[!
0Z!
1Y!
0f!
1g!
1h!
1>!
0?!
1@!
0A!
0B!
1C!
1j!
0k!
0^!
0D!
1E!
1B!
0C!
0@!
1k!
0j!
1m!
1D!
0E!
1F!
1O!
0l!
0m!
0F!
0i!
0O!
1l!
1i!
#880000
0)
0P
0=!
#890000
1)
1P
1=!
1[!
0h!
0>!
1?!
1^!
1@!
0k!
#900000
0)
0P
0=!
#910000
1)
1P
1=!
0[!
1Z!
0g!
1h!
1>!
0?!
0@!
1A!
1k!
0^!
0B!
1C!
1@!
0A!
0k!
1j!
1B!
0C!
0D!
1E!
1m!
0j!
1F!
1D!
0E!
1O!
0m!
0l!
0F!
0i!
0O!
1l!
1i!
#920000
0)
0P
0=!
#930000
1)
1P
1=!
1[!
0h!
0>!
1?!
1^!
0@!
1A!
1k!
0B!
1C!
1j!
0D!
1E!
1m!
1F!
1O!
0l!
0i!
0O!
1i!
#940000
0)
0P
0=!
#950000
1)
1P
1=!
0[!
0Z!
0Y!
0X!
1W!
0d!
1e!
1f!
1g!
1h!
1>!
0?!
1@!
0A!
1B!
0C!
1D!
0E!
0F!
1G!
1l!
0m!
0j!
0k!
0^!
0H!
1I!
1F!
0G!
0D!
0B!
0@!
1k!
1j!
1m!
0l!
1_!
1H!
0I!
1J!
0\!
0_!
0J!
1\!
#960000
0)
0P
0=!
#970000
1)
1P
1=!
1[!
0h!
0>!
1?!
1^!
1@!
0k!
#980000
0)
0P
0=!
#990000
1)
1P
1=!
0[!
1Z!
0g!
1h!
1>!
0?!
0@!
1A!
1k!
0^!
1B!
1@!
0A!
0k!
0j!
0B!
1j!
